This is BibTeX, Version 0.99d (TeX Live 2013/Debian)
Capacity: max_strings=35307, hash_size=35307, hash_prime=30011
The top-level auxiliary file: projekt.aux
The style file: czechiso.bst
Database file #1: literatura.bib
Reallocated wiz_functions (elt_size=4) to 6000 items from 3000.
Warning--to sort, need author or key in Domotica
Warning--to sort, need author or key in CannyNet
Warning--to sort, need author or key in XBMC
Warning--to sort, need author or key in QTDoc
Warning--to sort, need author or key in QTCreator
Warning--to sort, need author or key in QTLicence
You've used 10 entries,
            3151 wiz_defined-function locations,
            695 strings with 6748 characters,
and the built_in function-call counts, 2613 in all, are:
= -- 169
> -- 41
< -- 0
+ -- 22
- -- 10
* -- 93
:= -- 264
add.period$ -- 20
call.type$ -- 10
change.case$ -- 25
chr.to.int$ -- 0
cite$ -- 16
duplicate$ -- 268
empty$ -- 326
format.name$ -- 11
if$ -- 588
int.to.chr$ -- 0
int.to.str$ -- 10
missing$ -- 61
newline$ -- 40
num.names$ -- 8
pop$ -- 182
preamble$ -- 1
purify$ -- 25
quote$ -- 0
skip$ -- 134
stack$ -- 0
substring$ -- 52
swap$ -- 98
text.length$ -- 0
text.prefix$ -- 0
top$ -- 0
type$ -- 38
warning$ -- 6
while$ -- 8
width$ -- 12
write$ -- 75
(There were 6 warnings)
